<?xml version="1.0" encoding="UTF-8" standalone="no"?>
<!-- Created with Inkscape (http://www.inkscape.org/) -->

<svg
   xmlns:osb="http://www.openswatchbook.org/uri/2009/osb"
   xmlns:dc="http://purl.org/dc/elements/1.1/"
   xmlns:cc="http://creativecommons.org/ns#"
   xmlns:rdf="http://www.w3.org/1999/02/22-rdf-syntax-ns#"
   xmlns:svg="http://www.w3.org/2000/svg"
   xmlns="http://www.w3.org/2000/svg"
   xmlns:xlink="http://www.w3.org/1999/xlink"
   xmlns:sodipodi="http://sodipodi.sourceforge.net/DTD/sodipodi-0.dtd"
   xmlns:inkscape="http://www.inkscape.org/namespaces/inkscape"
   width="210mm"
   height="297mm"
   id="svg2"
   version="1.1"
   inkscape:version="0.48.4 r9939"
   sodipodi:docname="fig2.svg"
   inkscape:export-filename="/home/ricci/src/go/src/qgraph/img/fig2.png"
   inkscape:export-xdpi="90"
   inkscape:export-ydpi="90">
  <defs
     id="defs4">
    <linearGradient
       id="linearGradient4026"
       osb:paint="solid">
      <stop
         style="stop-color:#ffffff;stop-opacity:1;"
         offset="0"
         id="stop4028" />
    </linearGradient>
    <linearGradient
       id="linearGradient3975"
       osb:paint="solid">
      <stop
         style="stop-color:#000000;stop-opacity:1;"
         offset="0"
         id="stop3977" />
    </linearGradient>
    <linearGradient
       id="linearGradient3944"
       osb:paint="solid">
      <stop
         style="stop-color:#fefdfe;stop-opacity:1;"
         offset="0"
         id="stop3946" />
    </linearGradient>
    <linearGradient
       id="linearGradient3938"
       osb:paint="solid">
      <stop
         style="stop-color:#fefdfe;stop-opacity:1;"
         offset="0"
         id="stop3940" />
    </linearGradient>
    <linearGradient
       id="linearGradient3932"
       osb:paint="solid">
      <stop
         style="stop-color:#fefdfe;stop-opacity:1;"
         offset="0"
         id="stop3934" />
    </linearGradient>
    <linearGradient
       id="linearGradient3926"
       osb:paint="solid">
      <stop
         style="stop-color:#fefdfe;stop-opacity:1;"
         offset="0"
         id="stop3928" />
    </linearGradient>
    <linearGradient
       id="linearGradient3920"
       osb:paint="solid">
      <stop
         style="stop-color:#fdfdfe;stop-opacity:1;"
         offset="0"
         id="stop3922" />
    </linearGradient>
    <linearGradient
       id="linearGradient3914"
       osb:paint="solid">
      <stop
         style="stop-color:#ffffff;stop-opacity:1;"
         offset="0"
         id="stop3916" />
    </linearGradient>
    <linearGradient
       id="linearGradient3816"
       osb:paint="solid">
      <stop
         style="stop-color:#000000;stop-opacity:1;"
         offset="0"
         id="stop3818" />
    </linearGradient>
    <linearGradient
       inkscape:collect="always"
       xlink:href="#linearGradient3816"
       id="linearGradient3820"
       x1="282.5"
       y1="247.36218"
       x2="481.5"
       y2="247.36218"
       gradientUnits="userSpaceOnUse"
       gradientTransform="translate(0,0.16105738)" />
    <linearGradient
       inkscape:collect="always"
       xlink:href="#linearGradient3920"
       id="linearGradient3924"
       x1="180.99181"
       y1="22.70311"
       x2="243.00819"
       y2="22.70311"
       gradientUnits="userSpaceOnUse" />
    <linearGradient
       inkscape:collect="always"
       xlink:href="#linearGradient3926"
       id="linearGradient3930"
       x1="180.99181"
       y1="22.70311"
       x2="243.00819"
       y2="22.70311"
       gradientUnits="userSpaceOnUse" />
    <linearGradient
       inkscape:collect="always"
       xlink:href="#linearGradient3932"
       id="linearGradient3936"
       x1="180.99181"
       y1="22.70311"
       x2="243.00819"
       y2="22.70311"
       gradientUnits="userSpaceOnUse" />
    <linearGradient
       inkscape:collect="always"
       xlink:href="#linearGradient3938"
       id="linearGradient3942"
       x1="180.99181"
       y1="22.70311"
       x2="243.00819"
       y2="22.70311"
       gradientUnits="userSpaceOnUse" />
    <linearGradient
       inkscape:collect="always"
       xlink:href="#linearGradient3944"
       id="linearGradient3948"
       x1="180.99181"
       y1="22.70311"
       x2="243.00819"
       y2="22.70311"
       gradientUnits="userSpaceOnUse" />
    <linearGradient
       inkscape:collect="always"
       xlink:href="#linearGradient3975-3"
       id="linearGradient3979-9"
       x1="157.96326"
       y1="48.362183"
       x2="166"
       y2="48.362183"
       gradientUnits="userSpaceOnUse" />
    <linearGradient
       id="linearGradient3975-3"
       osb:paint="solid">
      <stop
         style="stop-color:#000000;stop-opacity:1;"
         offset="0"
         id="stop3977-6" />
    </linearGradient>
    <linearGradient
       inkscape:collect="always"
       xlink:href="#linearGradient4026"
       id="linearGradient4030"
       x1="84"
       y1="78.362183"
       x2="110"
       y2="78.362183"
       gradientUnits="userSpaceOnUse" />
    <linearGradient
       inkscape:collect="always"
       xlink:href="#linearGradient4026-8"
       id="linearGradient4032-1"
       gradientUnits="userSpaceOnUse"
       x1="84"
       y1="78.362183"
       x2="110"
       y2="78.362183" />
    <linearGradient
       id="linearGradient4026-8"
       osb:paint="solid">
      <stop
         style="stop-color:#ffffff;stop-opacity:1;"
         offset="0"
         id="stop4028-7" />
    </linearGradient>
    <linearGradient
       inkscape:collect="always"
       xlink:href="#linearGradient4026-8"
       id="linearGradient4040-9"
       gradientUnits="userSpaceOnUse"
       x1="84"
       y1="78.362183"
       x2="110"
       y2="78.362183"
       gradientTransform="translate(78,351)" />
    <linearGradient
       id="linearGradient4064"
       osb:paint="solid">
      <stop
         style="stop-color:#ffffff;stop-opacity:1;"
         offset="0"
         id="stop4066" />
    </linearGradient>
    <linearGradient
       inkscape:collect="always"
       xlink:href="#linearGradient4026"
       id="linearGradient4097"
       gradientUnits="userSpaceOnUse"
       x1="84"
       y1="78.362183"
       x2="110"
       y2="78.362183" />
    <linearGradient
       inkscape:collect="always"
       xlink:href="#linearGradient4026"
       id="linearGradient4099"
       gradientUnits="userSpaceOnUse"
       gradientTransform="translate(78,351)"
       x1="84"
       y1="78.362183"
       x2="110"
       y2="78.362183" />
    <linearGradient
       inkscape:collect="always"
       xlink:href="#linearGradient4026-8-5"
       id="linearGradient4032-1-7"
       gradientUnits="userSpaceOnUse"
       x1="84"
       y1="78.362183"
       x2="110"
       y2="78.362183" />
    <linearGradient
       id="linearGradient4026-8-5"
       osb:paint="solid">
      <stop
         style="stop-color:#ffffff;stop-opacity:1;"
         offset="0"
         id="stop4028-7-9" />
    </linearGradient>
    <linearGradient
       inkscape:collect="always"
       xlink:href="#linearGradient4026-8-5"
       id="linearGradient4040-9-2"
       gradientUnits="userSpaceOnUse"
       x1="84"
       y1="78.362183"
       x2="110"
       y2="78.362183"
       gradientTransform="translate(78,351)" />
    <linearGradient
       id="linearGradient4115"
       osb:paint="solid">
      <stop
         style="stop-color:#ffffff;stop-opacity:1;"
         offset="0"
         id="stop4117" />
    </linearGradient>
    <linearGradient
       inkscape:collect="always"
       xlink:href="#linearGradient4026-8-6"
       id="linearGradient4032-1-3"
       gradientUnits="userSpaceOnUse"
       x1="84"
       y1="78.362183"
       x2="110"
       y2="78.362183" />
    <linearGradient
       id="linearGradient4026-8-6"
       osb:paint="solid">
      <stop
         style="stop-color:#ffffff;stop-opacity:1;"
         offset="0"
         id="stop4028-7-1" />
    </linearGradient>
    <linearGradient
       inkscape:collect="always"
       xlink:href="#linearGradient4026-8-6"
       id="linearGradient4040-9-29"
       gradientUnits="userSpaceOnUse"
       x1="84"
       y1="78.362183"
       x2="110"
       y2="78.362183"
       gradientTransform="translate(78,351)" />
    <linearGradient
       id="linearGradient4115-3"
       osb:paint="solid">
      <stop
         style="stop-color:#ffffff;stop-opacity:1;"
         offset="0"
         id="stop4117-1" />
    </linearGradient>
    <linearGradient
       inkscape:collect="always"
       xlink:href="#linearGradient4026-8-50"
       id="linearGradient4032-1-4"
       gradientUnits="userSpaceOnUse"
       x1="84"
       y1="78.362183"
       x2="110"
       y2="78.362183" />
    <linearGradient
       id="linearGradient4026-8-50"
       osb:paint="solid">
      <stop
         style="stop-color:#ffffff;stop-opacity:1;"
         offset="0"
         id="stop4028-7-3" />
    </linearGradient>
    <linearGradient
       inkscape:collect="always"
       xlink:href="#linearGradient4026-8-50"
       id="linearGradient4040-9-6"
       gradientUnits="userSpaceOnUse"
       x1="84"
       y1="78.362183"
       x2="110"
       y2="78.362183"
       gradientTransform="translate(78,351)" />
    <linearGradient
       id="linearGradient4115-1"
       osb:paint="solid">
      <stop
         style="stop-color:#ffffff;stop-opacity:1;"
         offset="0"
         id="stop4117-0" />
    </linearGradient>
  </defs>
  <sodipodi:namedview
     id="base"
     pagecolor="#ffffff"
     bordercolor="#666666"
     borderopacity="1.0"
     inkscape:pageopacity="0.0"
     inkscape:pageshadow="2"
     inkscape:zoom="1"
     inkscape:cx="377.87525"
     inkscape:cy="868.83895"
     inkscape:document-units="px"
     inkscape:current-layer="layer1"
     showgrid="false"
     inkscape:window-width="1366"
     inkscape:window-height="748"
     inkscape:window-x="-2"
     inkscape:window-y="-3"
     inkscape:window-maximized="1" />
  <metadata
     id="metadata7">
    <rdf:RDF>
      <cc:Work
         rdf:about="">
        <dc:format>image/svg+xml</dc:format>
        <dc:type
           rdf:resource="http://purl.org/dc/dcmitype/StillImage" />
        <dc:title></dc:title>
      </cc:Work>
    </rdf:RDF>
  </metadata>
  <g
     inkscape:label="Calque 1"
     inkscape:groupmode="layer"
     id="layer1">
    <path
       sodipodi:type="star"
       style="fill:#ffffff;stroke:#000000;stroke-width:1;stroke-miterlimit:4;stroke-opacity:1;stroke-dasharray:none;fill-opacity:1"
       id="path2989-3"
       sodipodi:sides="3"
       sodipodi:cx="212"
       sodipodi:cy="31.362183"
       sodipodi:r1="35.227829"
       sodipodi:r2="17.93758"
       sodipodi:arg1="0.52359878"
       sodipodi:arg2="1.6265741"
       inkscape:flatsided="false"
       inkscape:rounded="0"
       inkscape:randomized="0"
       d="M 242.50819,48.976097 211,49.271867 181.49181,48.976097 196.98976,21.541316 212,-3.8656464 228.01024,23.273366 z"
       inkscape:transform-center-y="8.8069572"
       transform="matrix(0.48,0,0,-0.48,280.24,277.25968)" />
    <path
       sodipodi:type="star"
       style="fill:#ffffff;stroke:#000000;stroke-width:1;stroke-miterlimit:4;stroke-opacity:1;stroke-dasharray:none;fill-opacity:1"
       id="path2989-7"
       sodipodi:sides="3"
       sodipodi:cx="212"
       sodipodi:cy="31.362183"
       sodipodi:r1="35.227829"
       sodipodi:r2="17.93758"
       sodipodi:arg1="0.52359878"
       sodipodi:arg2="1.6265741"
       inkscape:flatsided="false"
       inkscape:rounded="0"
       inkscape:randomized="0"
       d="M 242.50819,48.976097 211,49.271867 181.49181,48.976097 196.98976,21.541316 212,-3.8656464 228.01024,23.273366 z"
       inkscape:transform-center-y="8.8069572"
       transform="matrix(0.48,0,0,-0.48,280.24,118.25967)" />
    <path
       sodipodi:type="arc"
       style="color:#000000;fill:#ffffff;fill-opacity:1;fill-rule:evenodd;stroke:#000000;stroke-width:2;stroke-linecap:butt;stroke-linejoin:miter;stroke-miterlimit:4;stroke-opacity:1;stroke-dasharray:none;stroke-dashoffset:0;marker:none;visibility:visible;display:inline;overflow:visible;enable-background:accumulate"
       id="path3812"
       sodipodi:cx="385"
       sodipodi:cy="175.36218"
       sodipodi:rx="27"
       sodipodi:ry="27"
       d="m 412,175.36218 a 27,27 0 1 1 -54,0 27,27 0 1 1 54,0 z"
       transform="translate(-3,-28)" />
    <rect
       style="fill:url(#linearGradient3820);fill-opacity:1;stroke:#000000;stroke-width:1;stroke-miterlimit:4;stroke-opacity:1;stroke-dasharray:none"
       id="rect3814"
       width="198"
       height="12"
       x="283"
       y="241.52324" />
    <path
       style="fill:none;stroke:#000000;stroke-width:1px;stroke-linecap:butt;stroke-linejoin:miter;stroke-opacity:1"
       d="m 382.5,277.36218 0,130 -1,1"
       id="path3822"
       inkscape:connector-curvature="0" />
    <path
       style="fill:none;stroke:#000000;stroke-width:1px;stroke-linecap:butt;stroke-linejoin:miter;stroke-opacity:1"
       d="m 382.5,175.86218 c 0,19.47621 0,35.55482 0,63 l -1,1"
       id="path3822-9"
       inkscape:connector-curvature="0"
       sodipodi:nodetypes="ccc" />
    <path
       style="fill:none;stroke:#000000;stroke-width:1px;stroke-linecap:butt;stroke-linejoin:miter;stroke-opacity:1"
       d="m 382.5,29.36218 c 0,19.47621 0,35.55482 0,63 l -1,1"
       id="path3822-9-1"
       inkscape:connector-curvature="0"
       sodipodi:nodetypes="ccc" />
    <path
       style="fill:none;stroke:#000000;stroke-width:1px;stroke-linecap:butt;stroke-linejoin:miter;stroke-opacity:1"
       d="m 381.68301,278.38752 74,129.5833 1.63398,1.36602"
       id="path3822-2"
       inkscape:connector-curvature="0"
       sodipodi:nodetypes="ccc" />
    <path
       style="fill:none;stroke:#000000;stroke-width:1px;stroke-linecap:butt;stroke-linejoin:miter;stroke-opacity:1"
       d="m 382.81699,277.88752 -75,130.5833 -0.63398,0.36602"
       id="path3822-2-7"
       inkscape:connector-curvature="0"
       sodipodi:nodetypes="ccc" />
    <path
       style="fill:none;stroke:#000000;stroke-width:1;stroke-linecap:butt;stroke-linejoin:miter;stroke-opacity:1;stroke-miterlimit:4;stroke-dasharray:8,8;stroke-dashoffset:0"
       d="m 296.81699,253.88752 -91,154.5833 0.36602,0.36602"
       id="path3822-2-7-0"
       inkscape:connector-curvature="0"
       sodipodi:nodetypes="ccc" />
    <path
       sodipodi:type="star"
       style="opacity:0.98000004;fill:url(#linearGradient3924);fill-opacity:1;stroke:#000000;stroke-width:1;stroke-miterlimit:4;stroke-opacity:1;stroke-dasharray:none"
       id="path2989"
       sodipodi:sides="3"
       sodipodi:cx="212"
       sodipodi:cy="31.362183"
       sodipodi:r1="35.227829"
       sodipodi:r2="17.93758"
       sodipodi:arg1="0.52359878"
       sodipodi:arg2="1.6265741"
       inkscape:flatsided="false"
       inkscape:rounded="0"
       inkscape:randomized="0"
       d="M 242.50819,48.976097 211,49.271867 181.49181,48.976097 196.98976,21.541316 212,-3.8656464 228.01024,23.273366 z"
       transform="matrix(0.39319299,0.27531669,0.27531669,-0.39319299,160.34108,287.66996)"
       inkscape:transform-center-x="-0.90563213"
       inkscape:transform-center-y="3.0726732" />
    <path
       sodipodi:type="star"
       style="fill:url(#linearGradient3930);fill-opacity:1;stroke:#000000;stroke-width:1;stroke-miterlimit:4;stroke-opacity:1;stroke-dasharray:none"
       id="path2989-6"
       sodipodi:sides="3"
       sodipodi:cx="212"
       sodipodi:cy="31.362183"
       sodipodi:r1="35.227829"
       sodipodi:r2="17.93758"
       sodipodi:arg1="0.52359878"
       sodipodi:arg2="1.6265741"
       inkscape:flatsided="false"
       inkscape:rounded="0"
       inkscape:randomized="0"
       d="M 242.50819,48.976097 211,49.271867 181.49181,48.976097 196.98976,21.541316 212,-3.8656464 228.01024,23.273366 z"
       inkscape:transform-center-y="8.8069572"
       transform="matrix(0.48,0,0,-0.48,280.24,432.25968)" />
    <path
       sodipodi:type="star"
       style="fill:url(#linearGradient3936);fill-opacity:1;stroke:#000000;stroke-width:1;stroke-miterlimit:4;stroke-opacity:1;stroke-dasharray:none"
       id="path2989-35"
       sodipodi:sides="3"
       sodipodi:cx="212"
       sodipodi:cy="31.362183"
       sodipodi:r1="35.227829"
       sodipodi:r2="17.93758"
       sodipodi:arg1="0.52359878"
       sodipodi:arg2="1.6265741"
       inkscape:flatsided="false"
       inkscape:rounded="0"
       inkscape:randomized="0"
       d="M 242.50819,48.976097 211,49.271867 181.49181,48.976097 196.98976,21.541316 212,-3.8656464 228.01024,23.273366 z"
       inkscape:transform-center-y="8.8069572"
       transform="matrix(0.48,0,0,-0.48,280.24,391.25968)" />
    <path
       sodipodi:type="star"
       style="fill:url(#linearGradient3942);fill-opacity:1;stroke:#000000;stroke-width:1;stroke-miterlimit:4;stroke-opacity:1;stroke-dasharray:none"
       id="path2989-62"
       sodipodi:sides="3"
       sodipodi:cx="212"
       sodipodi:cy="31.362183"
       sodipodi:r1="35.227829"
       sodipodi:r2="17.93758"
       sodipodi:arg1="0.52359878"
       sodipodi:arg2="1.6265741"
       inkscape:flatsided="false"
       inkscape:rounded="0"
       inkscape:randomized="0"
       d="M 242.50819,48.976097 211,49.271867 181.49181,48.976097 196.98976,21.541316 212,-3.8656464 228.01024,23.273366 z"
       inkscape:transform-center-y="4.0275404"
       transform="matrix(0.4156922,-0.24,-0.24,-0.4156922,350.72547,429.49978)"
       inkscape:transform-center-x="1.8310623" />
    <path
       sodipodi:type="star"
       style="fill:url(#linearGradient3948);fill-opacity:1;stroke:#000000;stroke-width:1;stroke-miterlimit:4;stroke-opacity:1;stroke-dasharray:none"
       id="path2989-5"
       sodipodi:sides="3"
       sodipodi:cx="212"
       sodipodi:cy="31.362183"
       sodipodi:r1="35.227829"
       sodipodi:r2="17.93758"
       sodipodi:arg1="0.52359878"
       sodipodi:arg2="1.6265741"
       inkscape:flatsided="false"
       inkscape:rounded="0"
       inkscape:randomized="0"
       d="M 242.50819,48.976097 211,49.271867 181.49181,48.976097 196.98976,21.541316 212,-3.8656464 228.01024,23.273366 z"
       inkscape:transform-center-y="4.0275405"
       transform="matrix(0.4156922,0.24,0.24,-0.4156922,235.02103,327.73978)"
       inkscape:transform-center-x="-1.8310551" />
    <g
       id="g4045"
       transform="translate(124,-181.83894)">
      <path
         transform="translate(78,351)"
         d="m 109,78.362183 c 0,6.627417 -5.37258,12 -12,12 -6.627417,0 -12,-5.372583 -12,-12 0,-6.627417 5.372583,-12 12,-12 6.62742,0 12,5.372583 12,12 z"
         sodipodi:ry="12"
         sodipodi:rx="12"
         sodipodi:cy="78.362183"
         sodipodi:cx="97"
         id="path3969-6"
         style="color:#000000;fill:url(#linearGradient4097);fill-opacity:1;fill-rule:evenodd;stroke:#000000;stroke-width:2;stroke-linecap:butt;stroke-linejoin:miter;stroke-miterlimit:4;stroke-opacity:1;stroke-dasharray:none;stroke-dashoffset:0;marker:none;visibility:visible;display:inline;overflow:visible;enable-background:accumulate"
         sodipodi:type="arc" />
      <path
         inkscape:connector-curvature="0"
         id="path3971-2"
         d="m 174,418.36218 0,23"
         style="fill:url(#linearGradient4099);fill-opacity:1;stroke:#000000;stroke-width:2;stroke-linecap:butt;stroke-linejoin:miter;stroke-miterlimit:4;stroke-opacity:1;stroke-dasharray:none" />
      <path
         transform="translate(15.5,377)"
         inkscape:transform-center-x="-0.98162444"
         d="M 165,48.362183 162.01838,50.126061 159,51.826284 158.96325,48.362183 159,44.898081 l 3.01838,1.700224 z"
         inkscape:randomized="0"
         inkscape:rounded="0"
         inkscape:flatsided="false"
         sodipodi:arg2="1.0471976"
         sodipodi:arg1="0"
         sodipodi:r2="2.036751"
         sodipodi:r1="4"
         sodipodi:cy="48.362183"
         sodipodi:cx="161"
         sodipodi:sides="3"
         id="path3973-6"
         style="opacity:0.98000004;fill:#000000;fill-opacity:1;fill-rule:evenodd;stroke:#000000;stroke-width:2;stroke-miterlimit:4;stroke-opacity:1;stroke-dasharray:none;stroke-dashoffset:0"
         sodipodi:type="star" />
    </g>
    <g
       transform="translate(242.5,-302.5)"
       id="g4045-2">
      <path
         transform="translate(78,351)"
         d="m 109,78.362183 a 12,12 0 1 1 -24,0 12,12 0 1 1 24,0 z"
         sodipodi:ry="12"
         sodipodi:rx="12"
         sodipodi:cy="78.362183"
         sodipodi:cx="97"
         id="path3969-6-0"
         style="color:#000000;fill:url(#linearGradient4032-1);fill-opacity:1;fill-rule:evenodd;stroke:#000000;stroke-width:2;stroke-linecap:butt;stroke-linejoin:miter;stroke-miterlimit:4;stroke-opacity:1;stroke-dasharray:none;stroke-dashoffset:0;marker:none;visibility:visible;display:inline;overflow:visible;enable-background:accumulate"
         sodipodi:type="arc" />
      <path
         inkscape:connector-curvature="0"
         id="path3971-2-2"
         d="m 174,418.36218 0,23"
         style="fill:url(#linearGradient4040-9);fill-opacity:1;stroke:#000000;stroke-width:2;stroke-linecap:butt;stroke-linejoin:miter;stroke-miterlimit:4;stroke-opacity:1;stroke-dasharray:none" />
      <path
         transform="translate(15.5,377)"
         inkscape:transform-center-x="-0.98162444"
         d="M 165,48.362183 162.01838,50.126061 159,51.826284 158.96325,48.362183 159,44.898081 l 3.01838,1.700224 z"
         inkscape:randomized="0"
         inkscape:rounded="0"
         inkscape:flatsided="false"
         sodipodi:arg2="1.0471976"
         sodipodi:arg1="0"
         sodipodi:r2="2.036751"
         sodipodi:r1="4"
         sodipodi:cy="48.362183"
         sodipodi:cx="161"
         sodipodi:sides="3"
         id="path3973-6-3"
         style="opacity:0.98000004;fill:#000000;fill-opacity:1;fill-rule:evenodd;stroke:#000000;stroke-width:2;stroke-miterlimit:4;stroke-opacity:1;stroke-dasharray:none;stroke-dashoffset:0"
         sodipodi:type="star" />
    </g>
    <g
       transform="translate(178,-99)"
       id="g4045-2-2">
      <path
         transform="translate(78,351)"
         d="m 109,78.362183 c 0,6.627417 -5.37258,12 -12,12 -6.627417,0 -12,-5.372583 -12,-12 0,-6.627417 5.372583,-12 12,-12 6.62742,0 12,5.372583 12,12 z"
         sodipodi:ry="12"
         sodipodi:rx="12"
         sodipodi:cy="78.362183"
         sodipodi:cx="97"
         id="path3969-6-0-8"
         style="color:#000000;fill:url(#linearGradient4032-1-7);fill-opacity:1;fill-rule:evenodd;stroke:#000000;stroke-width:2;stroke-linecap:butt;stroke-linejoin:miter;stroke-miterlimit:4;stroke-opacity:1;stroke-dasharray:none;stroke-dashoffset:0;marker:none;visibility:visible;display:inline;overflow:visible;enable-background:accumulate"
         sodipodi:type="arc" />
      <path
         inkscape:connector-curvature="0"
         id="path3971-2-2-9"
         d="m 174,418.36218 0,23"
         style="fill:url(#linearGradient4040-9-2);fill-opacity:1;stroke:#000000;stroke-width:2;stroke-linecap:butt;stroke-linejoin:miter;stroke-miterlimit:4;stroke-opacity:1;stroke-dasharray:none" />
      <path
         transform="translate(15.5,377)"
         inkscape:transform-center-x="-0.98162444"
         d="M 165,48.362183 162.01838,50.126061 159,51.826284 158.96325,48.362183 159,44.898081 l 3.01838,1.700224 z"
         inkscape:randomized="0"
         inkscape:rounded="0"
         inkscape:flatsided="false"
         sodipodi:arg2="1.0471976"
         sodipodi:arg1="0"
         sodipodi:r2="2.036751"
         sodipodi:r1="4"
         sodipodi:cy="48.362183"
         sodipodi:cx="161"
         sodipodi:sides="3"
         id="path3973-6-3-7"
         style="opacity:0.98000004;fill:#000000;fill-opacity:1;fill-rule:evenodd;stroke:#000000;stroke-width:2;stroke-miterlimit:4;stroke-opacity:1;stroke-dasharray:none;stroke-dashoffset:0"
         sodipodi:type="star" />
    </g>
    <g
       transform="translate(208,-91)"
       id="g4045-2-9">
      <path
         transform="translate(78,351)"
         d="m 109,78.362183 a 12,12 0 1 1 -24,0 12,12 0 1 1 24,0 z"
         sodipodi:ry="12"
         sodipodi:rx="12"
         sodipodi:cy="78.362183"
         sodipodi:cx="97"
         id="path3969-6-0-4"
         style="color:#000000;fill:url(#linearGradient4032-1-3);fill-opacity:1;fill-rule:evenodd;stroke:#000000;stroke-width:2;stroke-linecap:butt;stroke-linejoin:miter;stroke-miterlimit:4;stroke-opacity:1;stroke-dasharray:none;stroke-dashoffset:0;marker:none;visibility:visible;display:inline;overflow:visible;enable-background:accumulate"
         sodipodi:type="arc" />
      <path
         inkscape:connector-curvature="0"
         id="path3971-2-2-7"
         d="m 174,418.36218 0,23"
         style="fill:url(#linearGradient4040-9-29);fill-opacity:1;stroke:#000000;stroke-width:2;stroke-linecap:butt;stroke-linejoin:miter;stroke-miterlimit:4;stroke-opacity:1;stroke-dasharray:none" />
      <path
         transform="translate(15.5,377)"
         inkscape:transform-center-x="-0.98162444"
         d="M 165,48.362183 162.01838,50.126061 159,51.826284 158.96325,48.362183 159,44.898081 l 3.01838,1.700224 z"
         inkscape:randomized="0"
         inkscape:rounded="0"
         inkscape:flatsided="false"
         sodipodi:arg2="1.0471976"
         sodipodi:arg1="0"
         sodipodi:r2="2.036751"
         sodipodi:r1="4"
         sodipodi:cy="48.362183"
         sodipodi:cx="161"
         sodipodi:sides="3"
         id="path3973-6-3-8"
         style="opacity:0.98000004;fill:#000000;fill-opacity:1;fill-rule:evenodd;stroke:#000000;stroke-width:2;stroke-miterlimit:4;stroke-opacity:1;stroke-dasharray:none;stroke-dashoffset:0"
         sodipodi:type="star" />
    </g>
    <g
       transform="translate(239,-99)"
       id="g4045-2-6">
      <path
         transform="translate(78,351)"
         d="m 109,78.362183 a 12,12 0 1 1 -24,0 12,12 0 1 1 24,0 z"
         sodipodi:ry="12"
         sodipodi:rx="12"
         sodipodi:cy="78.362183"
         sodipodi:cx="97"
         id="path3969-6-0-3"
         style="color:#000000;fill:url(#linearGradient4032-1-4);fill-opacity:1;fill-rule:evenodd;stroke:#000000;stroke-width:2;stroke-linecap:butt;stroke-linejoin:miter;stroke-miterlimit:4;stroke-opacity:1;stroke-dasharray:none;stroke-dashoffset:0;marker:none;visibility:visible;display:inline;overflow:visible;enable-background:accumulate"
         sodipodi:type="arc" />
      <path
         inkscape:connector-curvature="0"
         id="path3971-2-2-2"
         d="m 174,418.36218 0,23"
         style="fill:url(#linearGradient4040-9-6);fill-opacity:1;stroke:#000000;stroke-width:2;stroke-linecap:butt;stroke-linejoin:miter;stroke-miterlimit:4;stroke-opacity:1;stroke-dasharray:none" />
      <path
         transform="translate(15.5,377)"
         inkscape:transform-center-x="-0.98162444"
         d="M 165,48.362183 162.01838,50.126061 159,51.826284 158.96325,48.362183 159,44.898081 l 3.01838,1.700224 z"
         inkscape:randomized="0"
         inkscape:rounded="0"
         inkscape:flatsided="false"
         sodipodi:arg2="1.0471976"
         sodipodi:arg1="0"
         sodipodi:r2="2.036751"
         sodipodi:r1="4"
         sodipodi:cy="48.362183"
         sodipodi:cx="161"
         sodipodi:sides="3"
         id="path3973-6-3-0"
         style="opacity:0.98000004;fill:#000000;fill-opacity:1;fill-rule:evenodd;stroke:#000000;stroke-width:2;stroke-miterlimit:4;stroke-opacity:1;stroke-dasharray:none;stroke-dashoffset:0"
         sodipodi:type="star" />
    </g>
    <g
       id="g4205"
       transform="translate(158,47.487183)">
      <path
         id="rect4198"
         d="m 30,86.375 0,27 44,0 0,-0.3125 10.8125,-6.34375 L 95.96875,99.875 84.8125,93 74,86.65625 74,86.375 l -0.46875,0 -43.53125,0 z"
         style="opacity:0.92000002;fill:#ffffff;fill-opacity:1;fill-rule:evenodd;stroke:#000000;stroke-width:2;stroke-miterlimit:4;stroke-opacity:1;stroke-dasharray:none;stroke-dashoffset:0"
         inkscape:connector-curvature="0" />
    </g>
    <g
       transform="matrix(-1,0,0,1,615.81532,147.64824)"
       id="g4205-6">
      <path
         inkscape:connector-curvature="0"
         id="rect4198-1"
         d="m 30,86.375 0,27 44,0 0,-0.3125 10.8125,-6.34375 L 95.96875,99.875 84.8125,93 74,86.65625 74,86.375 l -0.46875,0 -43.53125,0 z"
         style="opacity:0.92000002;fill:#ffffff;fill-opacity:1;fill-rule:evenodd;stroke:#000000;stroke-width:2;stroke-miterlimit:4;stroke-opacity:1;stroke-dasharray:none;stroke-dashoffset:0" />
    </g>
    <path
       style="fill:none;stroke:#000000;stroke-width:1px;stroke-linecap:butt;stroke-linejoin:miter;stroke-opacity:1"
       d="m 252,146.36218 103,0"
       id="path4229"
       inkscape:connector-curvature="0" />
    <path
       style="fill:none;stroke:#000000;stroke-width:1px;stroke-linecap:butt;stroke-linejoin:miter;stroke-opacity:1"
       d="m 519,247.36218 -38,0"
       id="path4231"
       inkscape:connector-curvature="0" />
    <rect
       style="fill:#ffffff;fill-opacity:1;fill-rule:nonzero;stroke:#000000;stroke-width:1.03674328;stroke-miterlimit:0;stroke-opacity:1;stroke-dasharray:none;stroke-dashoffset:0"
       id="rect4233"
       width="69.963257"
       height="25.963257"
       x="404.01837"
       y="215.38055" />
    <text
       xml:space="preserve"
       style="font-size:12px;font-style:normal;font-weight:normal;line-height:125%;letter-spacing:0px;word-spacing:0px;fill:#000000;fill-opacity:1;stroke:none;font-family:Sans;-inkscape-font-specification:Sans"
       x="403"
       y="93.362183"
       id="text4259"
       sodipodi:linespacing="125%"><tspan
         sodipodi:role="line"
         id="tspan4261"
         x="403"
         y="93.362183">Tâche préparatoire</tspan></text>
    <text
       xml:space="preserve"
       style="font-size:12px;font-style:italic;font-weight:normal;line-height:125%;letter-spacing:0px;word-spacing:0px;fill:#000000;fill-opacity:1;stroke:none;font-family:Sans;-inkscape-font-specification:Sans Italic"
       x="191"
       y="150.36218"
       id="text4263"
       sodipodi:linespacing="125%"><tspan
         sodipodi:role="line"
         id="tspan4265"
         x="191"
         y="150.36218"
         style="font-style:normal;-inkscape-font-specification:Sans">OUTPUT</tspan></text>
    <text
       xml:space="preserve"
       style="font-size:12px;font-style:normal;font-weight:normal;line-height:125%;letter-spacing:0px;word-spacing:0px;fill:#000000;fill-opacity:1;stroke:none;font-family:Sans;-inkscape-font-specification:Sans"
       x="543"
       y="251.36218"
       id="text4267"
       sodipodi:linespacing="125%"><tspan
         sodipodi:role="line"
         id="tspan4269"
         x="543"
         y="251.36218">INPUT</tspan></text>
    <text
       xml:space="preserve"
       style="font-size:12px;font-style:normal;font-weight:normal;text-align:center;line-height:125%;letter-spacing:0px;word-spacing:0px;text-anchor:middle;fill:#000000;fill-opacity:1;stroke:none;font-family:Sans;-inkscape-font-specification:Sans"
       x="298.0498"
       y="218.36218"
       id="text4271"
       sodipodi:linespacing="125%"><tspan
         sodipodi:role="line"
         id="tspan4273"
         x="298.0498"
         y="218.36218">Possibilité de</tspan><tspan
         sodipodi:role="line"
         x="298.0498"
         y="233.36218"
         id="tspan4275">réponse facultative</tspan></text>
    <text
       xml:space="preserve"
       style="font-size:10px;font-style:normal;font-weight:normal;line-height:125%;letter-spacing:0px;word-spacing:0px;fill:#000000;fill-opacity:1;stroke:none;font-family:Sans;-inkscape-font-specification:Sans"
       x="405"
       y="233.36218"
       id="text4277"
       sodipodi:linespacing="125%"><tspan
         sodipodi:role="line"
         id="tspan4279"
         x="405"
         y="233.36218">Mémorisation</tspan></text>
    <text
       xml:space="preserve"
       style="font-size:12px;font-style:normal;font-weight:normal;line-height:125%;letter-spacing:0px;word-spacing:0px;fill:#000000;fill-opacity:1;stroke:none;font-family:Sans;-inkscape-font-specification:Sans"
       x="399"
       y="266.36218"
       id="text4281"
       sodipodi:linespacing="125%"><tspan
         sodipodi:role="line"
         id="tspan4283"
         x="399"
         y="266.36218">Tâche lié à l'état</tspan></text>
    <text
       xml:space="preserve"
       style="font-size:12px;font-style:normal;font-weight:normal;text-align:center;line-height:125%;letter-spacing:0px;word-spacing:0px;text-anchor:middle;fill:#000000;fill-opacity:1;stroke:none;font-family:Sans;-inkscape-font-specification:Sans"
       x="479.08105"
       y="309.36218"
       id="text4285"
       sodipodi:linespacing="125%"><tspan
         sodipodi:role="line"
         id="tspan4287"
         x="479.08105"
         y="309.36218">Possibilité de mémoriser</tspan><tspan
         sodipodi:role="line"
         x="479.08105"
         y="324.36218"
         id="tspan4289">la réponse</tspan></text>
    <text
       xml:space="preserve"
       style="font-size:12px;font-style:normal;font-weight:normal;line-height:125%;letter-spacing:0px;word-spacing:0px;fill:#000000;fill-opacity:1;stroke:none;font-family:Sans;-inkscape-font-specification:Sans"
       x="444"
       y="363.36218"
       id="text4291"
       sodipodi:linespacing="125%"><tspan
         sodipodi:role="line"
         id="tspan4293"
         x="444"
         y="363.36218">Tâche liée à la réponse</tspan></text>
    <text
       xml:space="preserve"
       style="font-size:12px;font-style:normal;font-weight:normal;line-height:125%;letter-spacing:0px;word-spacing:0px;fill:#000000;fill-opacity:1;stroke:none;font-family:Sans;-inkscape-font-specification:Sans"
       x="-150.01555"
       y="398.74518"
       id="text4295"
       sodipodi:linespacing="125%"
       transform="matrix(0.5,-0.8660254,0.8660254,0.5,0,0)"><tspan
         sodipodi:role="line"
         id="tspan4297"
         x="-150.01555"
         y="398.74518">Tâche si pas</tspan><tspan
         sodipodi:role="line"
         x="-150.01555"
         y="413.74518"
         id="tspan4299">de réponse</tspan></text>
    <text
       xml:space="preserve"
       style="font-size:12px;font-style:normal;font-weight:normal;line-height:125%;letter-spacing:0px;word-spacing:0px;fill:#000000;fill-opacity:1;stroke:none;font-family:Sans;-inkscape-font-specification:Sans"
       x="149"
       y="425.36218"
       id="text4305"
       sodipodi:linespacing="125%"><tspan
         sodipodi:role="line"
         id="tspan4307"
         x="149"
         y="425.36218">Vers l'état suivant</tspan></text>
    <text
       xml:space="preserve"
       style="font-size:12px;font-style:normal;font-weight:normal;line-height:125%;letter-spacing:0px;word-spacing:0px;fill:#000000;fill-opacity:1;stroke:none;font-family:Sans;-inkscape-font-specification:Sans"
       x="325.95898"
       y="454.07605"
       id="text4305-5"
       sodipodi:linespacing="125%"><tspan
         sodipodi:role="line"
         id="tspan4307-5"
         x="325.95898"
         y="454.07605">Vers l'état suivant</tspan></text>
    <text
       xml:space="preserve"
       style="font-size:12px;font-style:normal;font-weight:normal;line-height:125%;letter-spacing:0px;word-spacing:0px;fill:#000000;fill-opacity:1;stroke:none;font-family:Sans;-inkscape-font-specification:Sans"
       x="396"
       y="428.36218"
       id="text4330"
       sodipodi:linespacing="125%"><tspan
         sodipodi:role="line"
         id="tspan4332"
         x="396"
         y="428.36218">Tâche finale</tspan></text>
    <text
       xml:space="preserve"
       style="font-size:12px;font-style:normal;font-weight:normal;line-height:125%;letter-spacing:0px;word-spacing:0px;fill:#000000;fill-opacity:1;stroke:none;font-family:Sans;-inkscape-font-specification:Sans"
       x="433"
       y="124.36218"
       id="text4334"
       sodipodi:linespacing="125%"><tspan
         sodipodi:role="line"
         id="tspan4336"
         x="433"
         y="124.36218">Possibilité d'apprentissage</tspan></text>
    <text
       xml:space="preserve"
       style="font-size:14px;font-style:normal;font-weight:bold;line-height:125%;letter-spacing:0px;word-spacing:0px;fill:#000000;fill-opacity:1;stroke:none;font-family:Sans;-inkscape-font-specification:Sans Bold"
       x="433"
       y="148.36218"
       id="text4338"
       sodipodi:linespacing="125%"><tspan
         sodipodi:role="line"
         id="tspan4340"
         x="433"
         y="148.36218">Texte de la question</tspan><tspan
         sodipodi:role="line"
         x="433"
         y="165.86218"
         id="tspan4342">Textes des réponses</tspan></text>
  </g>
</svg>
